<svg xmlns="http://www.w3.org/2000/svg" x="0px" y="0px" width="48" height="48" viewBox="0 0 172 172" style="fill: #000000">
    <g fill="none" fill-rule="nonzero" stroke="none" stroke-width="1" stroke-linecap="butt" stroke-linejoin="miter" stroke-miterlimit="10" stroke-dasharray="" stroke-dashoffset="0" font-family="none" font-weight="none" font-size="none" text-anchor="none" style="mix-blend-mode: normal">
        <path d="M0,172v-172h172v172z" fill="none"></path>
        <path d="M86,172c-47.49649,0 -86,-38.50351 -86,-86v0c0,-47.49649 38.50351,-86 86,-86v0c47.49649,0 86,38.50351 86,86v0c0,47.49649 -38.50351,86 -86,86z" fill="#3498db"></path>
        <g>
            <path d="M86,32.895c-29.32908,0 -53.105,23.77592 -53.105,53.105c0,29.32908 23.77592,53.105 53.105,53.105c29.32908,0 53.105,-23.77592 53.105,-53.105c0,-29.32908 -23.77592,-53.105 -53.105,-53.105z" fill="#039be5"></path>
            <path d="M93.18874,100.07562h13.74302l2.15774,-13.96102h-15.90355v-7.63035c0,-5.79963 1.89501,-10.94243 7.3201,-10.94243h8.71761v-12.1834c-1.53166,-0.20683 -4.77107,-0.65962 -10.89212,-0.65962c-12.78154,0 -20.27493,6.74993 -20.27493,22.12801v9.28779h-13.1393v13.96102h13.1393v38.37256c2.60214,0.3913 5.23783,0.65683 7.94339,0.65683c2.44563,0 4.83255,-0.2236 7.18874,-0.54223z" fill="#ffffff"></path>
        </g>
    </g>
</svg>